# id	file_path	transparent_color_r	g	b
[TEXTURES]
0	textures\Player_Simon.png	116	116	116
1	textures\simon.png	116	116	116
2	textures\whip.png	255	0	255
20	textures\misc.png	176	224	248
40	textures\Brick-2.png	255	255	255
41	textures\Objects.png	116	116	116
50	textures\scence2.png	255	255	255
60	textures\Board.png	116	116	116
101	textures\Enemies\0.png	255	0	255

# id	left	top	right	bottom	texture_id
[SPRITES]
# SIMON
# idle left
2000	15	21	39	51	1
#walk
2001	94	20	120	51	1
2002	50	20	80	51	1
#attach_whip_left
2003	10	78	40	108	1
2004	57	78	81	108	1
2005	98	78	128	108	1
#duck/jump
2006	191	21	221	51	1
#duck attack		
2007	8	139	38	169	1
2008	52	139	82	169	1
2009	100	139	130	169	1

# Bat
# idle
20010	2	2	14	16	101
# left
20011	16	2	32	16	101
20012	32	4	48	16	101
20013	48	0	64	16	101	

# WHIP
#NORMAL_WHIP
2100	0	5	120	32	2
2101	120	5	240	23	2
2102	240	5	360	16	2

#SHORT_WHIP
2200	0	37	120	65	2
2201	120	37	240	55	2	
2202	240	37	360	48	2

#LONG_WHIP
2300	0	71	120	99	2
2301	120	71	240	89	2
2302	240	71	360	82	2

#QUESTION BRICK
40001	300	117	316	133	20
40002	318	117	334	133	20
40003	336	117	352	133	20
40004	355	117	370	133	20

# BRICK
4000	0	0	16	16	40

#MAP
5	0	0	770	194	50
# Board
10	0	0	275	40	60

# ani_id	sprite1_id	time1	sprite2_id	time2	...
[ANIMATIONS]
# ==== SIMON =========
#idle left
200	2000	100
#walk left 
201	2000	100	2001	100	2002	100
#attack_left
202	2003	150	2004	150	2005	150
#duck
203	2006	100
#duck_attack_left
204	2007	150	2008	150	2009	150
# ==== BAT =========
700	20010	100
701	20011	100	20012	100	20013	100

# ==== WHIP =========
#normal
210	2100    150 2101	150	2102	150
#short
211	2200	150	2201	150	2202	150
#long	
212	2300	150	2301	150	2302	150

# ==== QUESTION BRICK =========
602	40001	1000	40001	100	40002	100	40003	100	40004	100


# ==== BRICK =========
400	4000	


#
# id	ani1	ani2	ani3
#
[ANIMATION_SETS]
# SIMON
1	200	201	202	203	204
# WHIP
2	210	211	212
# QUESTION BRICK 
22	602
# BRICK 
40	400
# BAT
50	701	700

[OBJECTS]
# type	x	y	ani_set_id	extra_settings per object type
# type: 0 = Simon , 1 = Brick, 2 = Goomba, 3 = Koopas, 4 = whip, 70 = Bat
# SIMON
0	17	115	1

#WHIP
4	0	0	2


# BRICK 
1	0	201	40
1	16	201	40
1	32	201	40
1	48	201	40
1	64	201	40
1	80	201	40
1	96	201	40
1	112	201	40
1	128	201	40
1	144	201	40
1	160	201	40
1	176	201	40
1	192	201	40
1	208	201	40
1	224	201	40
1	240	201	40
1	256	201	40
1	272	201	40
1	288	201	40
1	304	201	40
1	320	201	40
1	336	201	40
1	352	201	40
1	368	201	40
1	384	201	40
1	400	201	40
1	416	201	40
1	432	201	40
1	448	201	40
1	464	201	40
1	480	201	40
1	496	201	40
1	512	201	40
1	528	201	40
1	544	201	40
1	560	201	40
1	576	201	40
1	592	201	40
1	608	201	40
1	624	201	40
1	640	201	40
1	656	201	40
1	672	201	40
1	688	201	40
1	704	201	40
1	720	201	40
1	736	201	40
1	752	201	40
1	768	201	40
1	784	201	40
1	800	201	40
1	816	201	40
1	832	201	40
1	848	201	40
1	864	201	40
1	880	201	40
1	896	201	40
1	912	201	40
1	928	201	40
1	944	201	40
1	960	201	40
1	976	201	40
1	992	201	40
1	1008	201	40
1	1024	201	40
1	1040	201	40
1	1056	201	40
1	1072	201	40
1	1088	201	40
1	1104	201	40
1	1120	201	40
1	1136	201	40
1	1152	201	40
1	1168	201	40
1	1184	201	40
1	1200	201	40
1	1216	201	40
1	1232	201	40
1	1248	201	40
1	1264	201	40
1	1280	201	40
1	1296	201	40
1	1312	201	40
1	1328	201	40
1	1344	201	40

# BAT
70	200	180	50

# --- SCENE PORTAL ----
# type	l	t	ani_set_id	r	b	scene_id
50	685	170	0	720	204	1

[INFO_MAP]
#widthMap	ColTile	idTexture
1920	20	50

[TILE_MAP]
1	2	3	4	5	6	1	2	1	2	3	4	5	6	1	2	1	2	3	4	7	8	1	2	1	2	3	4	5	6	1	2	9	10	3	4	5	6	9	10	1	2	1	2	1	2	1	2	3	4	5	6	11	11	3	4	12	13	1	2	1	2	9	10	3	4	9	10	3	4	9	10	3	4	9	10	3	4	1	2	9	10	1	2	12	13	12	13	1	2	11	11	3	4	14	15	16	17	17	17	17	17	3	4	17	17	17	17	17	17	17	17	18	19	17	17	18	19	17	17
20	21	22	23	24	25	26	27	28	29	22	23	24	25	26	27	28	29	22	23	30	31	26	27	28	29	22	23	24	25	26	27	32	33	22	23	24	25	34	35	28	29	28	29	28	29	28	29	22	23	36	37	38	38	22	23	39	40	28	29	28	29	32	33	22	23	34	35	22	23	34	35	22	23	34	35	22	23	28	29	34	35	28	29	39	40	39	40	28	29	38	38	22	23	41	42	43	17	17	44	17	17	22	45	17	17	46	17	46	17	46	17	47	48	17	44	47	49	17	17
50	51	22	23	52	53	54	55	56	57	22	23	52	53	54	55	56	57	22	23	58	59	54	55	56	57	22	23	52	53	54	55	50	51	22	23	52	53	38	38	56	57	56	57	56	57	56	57	22	23	60	61	38	38	22	23	56	57	56	57	56	57	50	51	22	23	38	38	22	23	38	38	22	23	38	38	22	23	56	57	38	38	56	57	56	57	56	57	56	57	38	38	22	23	17	62	43	17	63	64	17	17	65	48	17	17	66	17	66	17	66	17	65	48	63	64	22	23	17	17
39	40	22	23	67	68	34	35	28	29	22	23	69	70	34	35	28	29	22	23	24	25	34	35	28	29	22	23	69	70	34	35	39	40	22	23	69	70	38	38	28	29	28	29	71	72	73	74	75	76	77	78	79	79	80	81	82	83	84	85	28	29	39	40	22	23	38	38	22	23	38	38	22	23	38	38	22	23	26	27	38	38	28	29	71	72	73	74	86	87	88	89	75	76	17	90	43	17	17	17	17	17	91	92	17	17	17	17	93	94	93	94	47	49	93	94	22	23	17	17
56	57	22	23	60	61	38	38	56	57	22	23	52	53	38	38	56	57	22	23	52	53	38	38	56	57	22	23	52	53	38	38	56	57	22	23	52	53	38	38	56	57	56	57	95	96	97	98	99	100	101	102	98	98	98	98	98	103	104	105	56	57	56	57	22	23	38	38	22	23	38	38	22	23	38	38	22	23	54	55	38	38	56	57	95	96	97	98	98	98	101	102	99	100	98	106	98	98	98	98	98	98	99	100	17	17	17	17	43	107	43	107	22	23	43	107	22	23	17	17
28	29	22	23	108	40	38	38	28	29	22	23	67	68	38	38	26	27	22	23	69	70	38	38	28	29	22	23	67	68	38	38	28	29	22	23	69	70	38	38	71	72	73	74	109	97	110	111	3	4	112	113	114	115	3	4	116	117	103	118	119	120	86	87	22	23	38	38	22	23	38	38	22	23	38	38	22	23	32	33	38	38	71	72	121	97	110	111	112	113	112	113	122	123	124	15	16	17	93	94	93	94	3	4	17	17	125	126	17	17	93	94	127	128	129	130	131	132	17	17
56	57	22	23	56	57	38	38	56	57	22	23	60	61	38	38	54	55	22	23	52	53	38	38	56	57	22	23	60	61	38	38	56	57	22	23	52	53	38	38	95	96	97	98	133	134	135	136	22	23	56	57	50	51	22	23	137	138	139	98	101	102	98	98	22	23	38	38	22	23	38	38	22	23	38	38	22	23	50	51	38	38	95	96	97	140	135	136	56	57	56	57	22	23	141	15	16	17	43	107	43	107	22	23	98	98	98	142	143	144	43	107	130	130	130	130	122	123	98	98
28	29	22	23	28	29	38	38	26	27	22	23	108	40	38	38	32	33	22	23	67	68	38	38	28	29	22	23	108	40	38	38	20	21	22	23	67	68	145	146	121	97	110	111	147	148	149	150	22	23	28	29	39	40	22	23	151	152	3	4	147	148	147	148	22	23	38	38	22	23	38	38	22	23	38	38	22	23	153	154	145	146	121	97	110	155	156	157	28	29	28	29	22	23	158	15	16	17	17	17	17	17	22	45	93	94	3	159	160	126	17	17	129	130	129	130	22	45	93	94
56	57	22	23	56	57	38	38	54	55	22	23	56	57	38	38	50	51	22	23	60	61	38	38	56	57	22	23	56	57	38	38	50	51	22	23	60	61	95	96	97	140	135	136	54	55	56	57	22	23	56	57	56	57	22	23	56	57	22	23	54	55	54	55	22	23	38	38	22	23	38	38	22	23	38	38	22	23	54	55	95	96	97	140	135	136	54	55	56	57	56	57	22	23	141	15	16	17	17	17	17	17	65	48	43	107	22	23	161	160	143	144	130	130	130	130	65	48	43	107
119	120	75	76	119	120	88	89	162	163	75	76	119	120	88	89	164	78	75	76	77	78	88	89	119	120	75	76	119	120	88	89	164	78	75	76	77	78	109	97	165	166	167	168	162	163	119	120	75	76	119	120	119	120	75	76	119	120	75	76	162	163	162	163	75	76	88	89	75	76	88	89	75	76	88	89	75	76	162	163	109	97	165	166	167	168	162	163	119	120	119	120	75	76	169	15	16	17	125	126	17	17	91	92	17	17	75	76	17	170	160	171	129	130	129	130	91	92	125	126
101	102	99	100	101	102	101	102	101	102	99	100	101	102	101	102	101	102	99	100	101	102	101	102	101	102	99	100	101	102	101	102	101	102	99	100	101	102	133	134	101	102	101	102	101	102	101	102	99	100	101	102	101	102	99	100	101	102	99	100	101	102	101	102	99	100	101	102	99	100	101	102	99	100	101	102	99	100	101	102	133	134	101	102	101	102	101	102	101	102	101	102	99	100	172	98	98	98	98	142	98	98	99	100	98	98	99	100	98	98	139	98	130	130	130	130	99	100	98	142